#timestamp;arduino_sketch;sensor_ldr_A0

2013-03-10 12:06:59;measure_LDR.ino;380
2013-03-10 12:07:04;measure_LDR.ino;263
2013-03-10 12:07:09;measure_LDR.ino;268
2013-03-10 12:07:14;measure_LDR.ino;389
2013-03-10 12:07:19;measure_LDR.ino;379
2013-03-10 12:07:24;measure_LDR.ino;369
2013-03-10 12:07:29;measure_LDR.ino;373
2013-03-10 12:07:34;measure_LDR.ino;387
2013-03-10 12:07:39;measure_LDR.ino;386
2013-03-10 12:07:44;measure_LDR.ino;375
2013-03-10 12:07:49;measure_LDR.ino;274
2013-03-10 12:07:54;measure_LDR.ino;412
2013-03-10 12:07:59;measure_LDR.ino;417
2013-03-10 12:08:04;measure_LDR.ino;413
2013-03-10 12:08:09;measure_LDR.ino;402
2013-03-10 12:08:14;measure_LDR.ino;403
2013-03-10 12:08:19;measure_LDR.ino;419
2013-03-10 12:08:24;measure_LDR.ino;408
2013-03-10 12:08:29;measure_LDR.ino;400
2013-03-10 12:08:34;measure_LDR.ino;408
2013-03-10 12:08:39;measure_LDR.ino;415
2013-03-10 12:08:44;measure_LDR.ino;416
2013-03-10 12:08:49;measure_LDR.ino;414
2013-03-10 12:08:54;measure_LDR.ino;405
2013-03-10 12:08:59;measure_LDR.ino;210
2013-03-10 12:09:04;measure_LDR.ino;224
2013-03-10 12:09:09;measure_LDR.ino;205
2013-03-10 12:09:14;measure_LDR.ino;267
2013-03-10 12:09:19;measure_LDR.ino;217
2013-03-10 12:09:24;measure_LDR.ino;206
2013-03-10 12:09:29;measure_LDR.ino;259
2013-03-10 12:09:34;measure_LDR.ino;264
2013-03-10 12:09:39;measure_LDR.ino;267
2013-03-10 12:09:44;measure_LDR.ino;275
2013-03-10 12:09:49;measure_LDR.ino;276
2013-03-10 12:09:54;measure_LDR.ino;275
2013-03-10 12:09:59;measure_LDR.ino;396
2013-03-10 12:10:04;measure_LDR.ino;390
2013-03-10 12:10:09;measure_LDR.ino;402
2013-03-10 12:10:14;measure_LDR.ino;410
2013-03-10 12:10:19;measure_LDR.ino;397
2013-03-10 12:10:24;measure_LDR.ino;392
2013-03-10 12:10:29;measure_LDR.ino;404
2013-03-10 12:10:34;measure_LDR.ino;413
2013-03-10 12:10:39;measure_LDR.ino;405
2013-03-10 12:10:44;measure_LDR.ino;393
2013-03-10 12:10:49;measure_LDR.ino;400
2013-03-10 12:10:54;measure_LDR.ino;412
2013-03-10 12:10:59;measure_LDR.ino;402
2013-03-10 12:11:04;measure_LDR.ino;380
2013-03-10 12:11:09;measure_LDR.ino;405
2013-03-10 12:11:14;measure_LDR.ino;414
2013-03-10 12:11:19;measure_LDR.ino;389
2013-03-10 12:11:24;measure_LDR.ino;297
2013-03-10 12:11:29;measure_LDR.ino;387
2013-03-10 12:11:34;measure_LDR.ino;292
2013-03-10 12:11:39;measure_LDR.ino;269
2013-03-10 12:11:44;measure_LDR.ino;388
2013-03-10 12:11:49;measure_LDR.ino;397
2013-03-10 12:11:54;measure_LDR.ino;228
2013-03-10 12:11:59;measure_LDR.ino;226
2013-03-10 12:12:04;measure_LDR.ino;227
2013-03-10 12:12:09;measure_LDR.ino;354
2013-03-10 12:12:14;measure_LDR.ino;343
2013-03-10 12:12:19;measure_LDR.ino;376
2013-03-10 12:12:24;measure_LDR.ino;381
2013-03-10 12:12:29;measure_LDR.ino;389
2013-03-10 12:12:34;measure_LDR.ino;408
2013-03-10 12:12:39;measure_LDR.ino;410
2013-03-10 12:12:44;measure_LDR.ino;409
2013-03-10 12:12:49;measure_LDR.ino;405
2013-03-10 12:12:54;measure_LDR.ino;397
2013-03-10 12:12:59;measure_LDR.ino;389
2013-03-10 12:13:04;measure_LDR.ino;389
2013-03-10 12:13:09;measure_LDR.ino;403
2013-03-10 12:13:14;measure_LDR.ino;404
2013-03-10 12:13:19;measure_LDR.ino;393
2013-03-10 12:13:24;measure_LDR.ino;386
2013-03-10 12:13:29;measure_LDR.ino;383
2013-03-10 12:13:34;measure_LDR.ino;388
2013-03-10 12:13:39;measure_LDR.ino;391
2013-03-10 12:13:44;measure_LDR.ino;278
2013-03-10 12:13:49;measure_LDR.ino;387
2013-03-10 12:13:54;measure_LDR.ino;390
2013-03-10 12:13:59;measure_LDR.ino;387
2013-03-10 12:14:04;measure_LDR.ino;380
2013-03-10 12:14:09;measure_LDR.ino;371
2013-03-10 12:14:14;measure_LDR.ino;365
2013-03-10 12:14:19;measure_LDR.ino;372
2013-03-10 12:14:24;measure_LDR.ino;381
2013-03-10 12:14:29;measure_LDR.ino;385
2013-03-10 12:14:34;measure_LDR.ino;376
2013-03-10 12:14:39;measure_LDR.ino;366
2013-03-10 12:14:44;measure_LDR.ino;361
2013-03-10 12:14:49;measure_LDR.ino;364
2013-03-10 12:14:54;measure_LDR.ino;371
2013-03-10 12:14:59;measure_LDR.ino;377
2013-03-10 12:15:04;measure_LDR.ino;381
2013-03-10 12:15:09;measure_LDR.ino;380
2013-03-10 12:15:14;measure_LDR.ino;368
2013-03-10 12:15:19;measure_LDR.ino;361
2013-03-10 12:15:24;measure_LDR.ino;367
2013-03-10 12:15:29;measure_LDR.ino;371
2013-03-10 12:15:34;measure_LDR.ino;375
2013-03-10 12:15:39;measure_LDR.ino;379
2013-03-10 12:15:44;measure_LDR.ino;249
2013-03-10 12:15:49;measure_LDR.ino;389
2013-03-10 12:15:54;measure_LDR.ino;388
2013-03-10 12:15:59;measure_LDR.ino;386
2013-03-10 12:16:04;measure_LDR.ino;382
2013-03-10 12:16:09;measure_LDR.ino;374
2013-03-10 12:16:14;measure_LDR.ino;368
2013-03-10 12:16:19;measure_LDR.ino;360
2013-03-10 12:16:24;measure_LDR.ino;360
2013-03-10 12:16:29;measure_LDR.ino;359
2013-03-10 12:16:34;measure_LDR.ino;359
2013-03-10 12:16:39;measure_LDR.ino;359
2013-03-10 12:16:44;measure_LDR.ino;360
2013-03-10 12:16:49;measure_LDR.ino;364
2013-03-10 12:16:54;measure_LDR.ino;369
2013-03-10 12:16:59;measure_LDR.ino;375
2013-03-10 12:17:04;measure_LDR.ino;378
2013-03-10 12:17:09;measure_LDR.ino;374
2013-03-10 12:17:14;measure_LDR.ino;368
2013-03-10 12:17:19;measure_LDR.ino;361
2013-03-10 12:17:24;measure_LDR.ino;356
2013-03-10 12:17:29;measure_LDR.ino;352
2013-03-10 12:17:34;measure_LDR.ino;355
2013-03-10 12:17:39;measure_LDR.ino;370
2013-03-10 12:17:44;measure_LDR.ino;365
2013-03-10 12:17:49;measure_LDR.ino;349
2013-03-10 12:17:54;measure_LDR.ino;370
2013-03-10 12:17:59;measure_LDR.ino;351
2013-03-10 12:18:04;measure_LDR.ino;358
2013-03-10 12:18:09;measure_LDR.ino;363
2013-03-10 12:18:14;measure_LDR.ino;343
2013-03-10 12:18:19;measure_LDR.ino;360
2013-03-10 12:18:24;measure_LDR.ino;366
2013-03-10 12:18:29;measure_LDR.ino;346
2013-03-10 12:18:34;measure_LDR.ino;352
2013-03-10 12:18:39;measure_LDR.ino;368
2013-03-10 12:18:44;measure_LDR.ino;360
2013-03-10 12:18:49;measure_LDR.ino;345
2013-03-10 12:18:54;measure_LDR.ino;360
2013-03-10 12:18:59;measure_LDR.ino;361
2013-03-10 12:19:04;measure_LDR.ino;344
2013-03-10 12:19:09;measure_LDR.ino;361
2013-03-10 12:19:14;measure_LDR.ino;358
2013-03-10 12:19:19;measure_LDR.ino;340
2013-03-10 12:19:24;measure_LDR.ino;359
2013-03-10 12:19:29;measure_LDR.ino;354
2013-03-10 12:19:34;measure_LDR.ino;342
2013-03-10 12:19:39;measure_LDR.ino;362
2013-03-10 12:19:44;measure_LDR.ino;337
2013-03-10 12:19:49;measure_LDR.ino;362
2013-03-10 12:19:54;measure_LDR.ino;346
2013-03-10 12:19:59;measure_LDR.ino;346
2013-03-10 12:20:04;measure_LDR.ino;359
2013-03-10 12:20:09;measure_LDR.ino;337
2013-03-10 12:20:14;measure_LDR.ino;358
2013-03-10 12:20:19;measure_LDR.ino;348
2013-03-10 12:20:24;measure_LDR.ino;342
2013-03-10 12:20:29;measure_LDR.ino;356
2013-03-10 12:20:34;measure_LDR.ino;337
2013-03-10 12:20:39;measure_LDR.ino;355
2013-03-10 12:20:44;measure_LDR.ino;354
2013-03-10 12:20:49;measure_LDR.ino;347
2013-03-10 12:20:54;measure_LDR.ino;357
2013-03-10 12:20:59;measure_LDR.ino;349
2013-03-10 12:21:04;measure_LDR.ino;359
2013-03-10 12:21:09;measure_LDR.ino;344
2013-03-10 12:21:14;measure_LDR.ino;366
2013-03-10 12:21:19;measure_LDR.ino;345
2013-03-10 12:21:24;measure_LDR.ino;361
2013-03-10 12:21:29;measure_LDR.ino;357
2013-03-10 12:21:34;measure_LDR.ino;347
2013-03-10 12:21:39;measure_LDR.ino;363
2013-03-10 12:21:44;measure_LDR.ino;342
2013-03-10 12:21:49;measure_LDR.ino;356
2013-03-10 12:21:54;measure_LDR.ino;365
2013-03-10 12:21:59;measure_LDR.ino;342
2013-03-10 12:22:04;measure_LDR.ino;364
2013-03-10 12:22:09;measure_LDR.ino;347
2013-03-10 12:22:14;measure_LDR.ino;354
2013-03-10 12:22:19;measure_LDR.ino;359
2013-03-10 12:22:24;measure_LDR.ino;343
2013-03-10 12:22:29;measure_LDR.ino;364
2013-03-10 12:22:34;measure_LDR.ino;343
2013-03-10 12:22:39;measure_LDR.ino;365
2013-03-10 12:22:44;measure_LDR.ino;340
2013-03-10 12:22:49;measure_LDR.ino;365
2013-03-10 12:22:54;measure_LDR.ino;343
2013-03-10 12:22:59;measure_LDR.ino;364
2013-03-10 12:23:04;measure_LDR.ino;341
2013-03-10 12:23:09;measure_LDR.ino;364
2013-03-10 12:23:14;measure_LDR.ino;342
2013-03-10 12:23:19;measure_LDR.ino;365
2013-03-10 12:23:24;measure_LDR.ino;348
2013-03-10 12:23:29;measure_LDR.ino;349
2013-03-10 12:23:34;measure_LDR.ino;366
2013-03-10 12:23:39;measure_LDR.ino;346
2013-03-10 12:23:44;measure_LDR.ino;350
2013-03-10 12:23:49;measure_LDR.ino;363
2013-03-10 12:23:54;measure_LDR.ino;364
2013-03-10 12:23:59;measure_LDR.ino;358
2013-03-10 12:24:04;measure_LDR.ino;345
2013-03-10 12:24:09;measure_LDR.ino;346
2013-03-10 12:24:14;measure_LDR.ino;356
2013-03-10 12:24:19;measure_LDR.ino;366
2013-03-10 12:24:24;measure_LDR.ino;354
2013-03-10 12:24:29;measure_LDR.ino;344
2013-03-10 12:24:34;measure_LDR.ino;357
2013-03-10 12:24:39;measure_LDR.ino;365
2013-03-10 12:24:44;measure_LDR.ino;351
2013-03-10 12:24:49;measure_LDR.ino;345
2013-03-10 12:24:54;measure_LDR.ino;366
2013-03-10 12:24:59;measure_LDR.ino;354
2013-03-10 12:25:04;measure_LDR.ino;343
2013-03-10 12:25:09;measure_LDR.ino;351
2013-03-10 12:25:14;measure_LDR.ino;364
2013-03-10 12:25:19;measure_LDR.ino;361
2013-03-10 12:25:24;measure_LDR.ino;346
2013-03-10 12:25:29;measure_LDR.ino;363
2013-03-10 12:25:34;measure_LDR.ino;369
2013-03-10 12:25:39;measure_LDR.ino;351
2013-03-10 12:25:44;measure_LDR.ino;354
2013-03-10 12:25:49;measure_LDR.ino;369
2013-03-10 12:25:54;measure_LDR.ino;348
2013-03-10 12:25:59;measure_LDR.ino;362
2013-03-10 12:26:04;measure_LDR.ino;367
2013-03-10 12:26:09;measure_LDR.ino;348
2013-03-10 12:26:14;measure_LDR.ino;366
2013-03-10 12:26:19;measure_LDR.ino;368
2013-03-10 12:26:24;measure_LDR.ino;352
2013-03-10 12:26:29;measure_LDR.ino;357
2013-03-10 12:26:34;measure_LDR.ino;372
2013-03-10 12:26:39;measure_LDR.ino;368
2013-03-10 12:26:44;measure_LDR.ino;353
2013-03-10 12:26:49;measure_LDR.ino;359
2013-03-10 12:26:54;measure_LDR.ino;372
2013-03-10 12:26:59;measure_LDR.ino;364
2013-03-10 12:27:04;measure_LDR.ino;351
2013-03-10 12:27:09;measure_LDR.ino;360
2013-03-10 12:27:14;measure_LDR.ino;371
2013-03-10 12:27:19;measure_LDR.ino;353
2013-03-10 12:27:24;measure_LDR.ino;354
2013-03-10 12:27:29;measure_LDR.ino;367
2013-03-10 12:27:34;measure_LDR.ino;373
2013-03-10 12:27:39;measure_LDR.ino;370
2013-03-10 12:27:44;measure_LDR.ino;361
2013-03-10 12:27:49;measure_LDR.ino;354
2013-03-10 12:27:54;measure_LDR.ino;361
2013-03-10 12:27:59;measure_LDR.ino;379
2013-03-10 12:28:04;measure_LDR.ino;369
2013-03-10 12:28:09;measure_LDR.ino;362
2013-03-10 12:28:14;measure_LDR.ino;381
2013-03-10 12:28:19;measure_LDR.ino;376
2013-03-10 12:28:24;measure_LDR.ino;362
2013-03-10 12:28:29;measure_LDR.ino;375
2013-03-10 12:28:34;measure_LDR.ino;383
2013-03-10 12:28:39;measure_LDR.ino;366
2013-03-10 12:28:44;measure_LDR.ino;380
2013-03-10 12:28:49;measure_LDR.ino;383
2013-03-10 12:28:54;measure_LDR.ino;367
2013-03-10 12:28:59;measure_LDR.ino;375
2013-03-10 12:29:04;measure_LDR.ino;388
2013-03-10 12:29:09;measure_LDR.ino;380
2013-03-10 12:29:14;measure_LDR.ino;368
2013-03-10 12:29:19;measure_LDR.ino;384
2013-03-10 12:29:24;measure_LDR.ino;389
2013-03-10 12:29:29;measure_LDR.ino;374
2013-03-10 12:29:34;measure_LDR.ino;372
2013-03-10 12:29:39;measure_LDR.ino;385
2013-03-10 12:29:44;measure_LDR.ino;390
2013-03-10 12:29:49;measure_LDR.ino;388
2013-03-10 12:29:54;measure_LDR.ino;379
2013-03-10 12:29:59;measure_LDR.ino;371
2013-03-10 12:30:04;measure_LDR.ino;381
2013-03-10 12:30:09;measure_LDR.ino;392
2013-03-10 12:30:14;measure_LDR.ino;387
2013-03-10 12:30:19;measure_LDR.ino;374
2013-03-10 12:30:24;measure_LDR.ino;377
2013-03-10 12:30:29;measure_LDR.ino;386
2013-03-10 12:30:34;measure_LDR.ino;392
2013-03-10 12:30:39;measure_LDR.ino;393
2013-03-10 12:30:44;measure_LDR.ino;394
2013-03-10 12:30:49;measure_LDR.ino;392
2013-03-10 12:30:54;measure_LDR.ino;389
2013-03-10 12:30:59;measure_LDR.ino;384
2013-03-10 12:31:04;measure_LDR.ino;378
2013-03-10 12:31:09;measure_LDR.ino;373
2013-03-10 12:31:14;measure_LDR.ino;373
2013-03-10 12:31:19;measure_LDR.ino;373
2013-03-10 12:31:24;measure_LDR.ino;371
2013-03-10 12:31:29;measure_LDR.ino;370
2013-03-10 12:31:34;measure_LDR.ino;370
2013-03-10 12:31:39;measure_LDR.ino;370
2013-03-10 12:31:44;measure_LDR.ino;371
2013-03-10 12:31:49;measure_LDR.ino;378
2013-03-10 12:31:54;measure_LDR.ino;385
2013-03-10 12:31:59;measure_LDR.ino;388
2013-03-10 12:32:04;measure_LDR.ino;387
2013-03-10 12:32:09;measure_LDR.ino;383
2013-03-10 12:32:14;measure_LDR.ino;379
2013-03-10 12:32:19;measure_LDR.ino;373
2013-03-10 12:32:24;measure_LDR.ino;366
2013-03-10 12:32:29;measure_LDR.ino;368
2013-03-10 12:32:34;measure_LDR.ino;376
2013-03-10 12:32:39;measure_LDR.ino;384
2013-03-10 12:32:44;measure_LDR.ino;386
2013-03-10 12:32:49;measure_LDR.ino;380
2013-03-10 12:32:54;measure_LDR.ino;372
2013-03-10 12:32:59;measure_LDR.ino;367
2013-03-10 12:33:04;measure_LDR.ino;366
2013-03-10 12:33:09;measure_LDR.ino;370
2013-03-10 12:33:14;measure_LDR.ino;374
2013-03-10 12:33:19;measure_LDR.ino;380
2013-03-10 12:33:24;measure_LDR.ino;389
2013-03-10 12:33:29;measure_LDR.ino;381
2013-03-10 12:33:34;measure_LDR.ino;371
2013-03-10 12:33:39;measure_LDR.ino;370
2013-03-10 12:33:44;measure_LDR.ino;376
2013-03-10 12:33:49;measure_LDR.ino;383
2013-03-10 12:33:54;measure_LDR.ino;386
2013-03-10 12:33:59;measure_LDR.ino;386
2013-03-10 12:34:04;measure_LDR.ino;385
2013-03-10 12:34:09;measure_LDR.ino;376
2013-03-10 12:34:14;measure_LDR.ino;375
2013-03-10 12:34:19;measure_LDR.ino;378
2013-03-10 12:34:24;measure_LDR.ino;386
2013-03-10 12:34:29;measure_LDR.ino;395
2013-03-10 12:34:34;measure_LDR.ino;399
2013-03-10 12:34:39;measure_LDR.ino;401
2013-03-10 12:34:44;measure_LDR.ino;400
2013-03-10 12:34:49;measure_LDR.ino;397
2013-03-10 12:34:54;measure_LDR.ino;393
2013-03-10 12:34:59;measure_LDR.ino;387
2013-03-10 12:35:04;measure_LDR.ino;385
2013-03-10 12:35:09;measure_LDR.ino;392
2013-03-10 12:35:14;measure_LDR.ino;402
2013-03-10 12:35:19;measure_LDR.ino;405
2013-03-10 12:35:24;measure_LDR.ino;405
2013-03-10 12:35:29;measure_LDR.ino;402
2013-03-10 12:35:34;measure_LDR.ino;390
2013-03-10 12:35:39;measure_LDR.ino;382
2013-03-10 12:35:44;measure_LDR.ino;384
2013-03-10 12:35:49;measure_LDR.ino;392
2013-03-10 12:35:54;measure_LDR.ino;403
2013-03-10 12:35:59;measure_LDR.ino;407
2013-03-10 12:36:04;measure_LDR.ino;403
2013-03-10 12:36:09;measure_LDR.ino;397
2013-03-10 12:36:14;measure_LDR.ino;393
2013-03-10 12:36:19;measure_LDR.ino;391
2013-03-10 12:36:24;measure_LDR.ino;391
2013-03-10 12:36:29;measure_LDR.ino;391
2013-03-10 12:36:34;measure_LDR.ino;396
2013-03-10 12:36:39;measure_LDR.ino;402
2013-03-10 12:36:44;measure_LDR.ino;406
2013-03-10 12:36:49;measure_LDR.ino;410
2013-03-10 12:36:54;measure_LDR.ino;410
2013-03-10 12:36:59;measure_LDR.ino;396
2013-03-10 12:37:04;measure_LDR.ino;395
2013-03-10 12:37:09;measure_LDR.ino;411
2013-03-10 12:37:14;measure_LDR.ino;397
2013-03-10 12:37:19;measure_LDR.ino;390
2013-03-10 12:37:24;measure_LDR.ino;403
2013-03-10 12:37:29;measure_LDR.ino;406
2013-03-10 12:37:34;measure_LDR.ino;388
2013-03-10 12:37:39;measure_LDR.ino;393
2013-03-10 12:37:44;measure_LDR.ino;403
2013-03-10 12:37:49;measure_LDR.ino;385
2013-03-10 12:37:54;measure_LDR.ino;387
2013-03-10 12:37:59;measure_LDR.ino;398
2013-03-10 12:38:04;measure_LDR.ino;398
2013-03-10 12:38:09;measure_LDR.ino;379
2013-03-10 12:38:14;measure_LDR.ino;392
2013-03-10 12:38:19;measure_LDR.ino;396
2013-03-10 12:38:24;measure_LDR.ino;384
2013-03-10 12:38:29;measure_LDR.ino;376
2013-03-10 12:38:34;measure_LDR.ino;381
2013-03-10 12:38:39;measure_LDR.ino;395
2013-03-10 12:38:44;measure_LDR.ino;395
2013-03-10 12:38:49;measure_LDR.ino;383
2013-03-10 12:38:54;measure_LDR.ino;373
2013-03-10 12:38:59;measure_LDR.ino;381
2013-03-10 12:39:04;measure_LDR.ino;390
2013-03-10 12:39:09;measure_LDR.ino;384
2013-03-10 12:39:14;measure_LDR.ino;370
2013-03-10 12:39:19;measure_LDR.ino;381
2013-03-10 12:39:24;measure_LDR.ino;388
2013-03-10 12:39:29;measure_LDR.ino;371
2013-03-10 12:39:34;measure_LDR.ino;376
2013-03-10 12:39:39;measure_LDR.ino;389
2013-03-10 12:39:44;measure_LDR.ino;363
2013-03-10 12:39:49;measure_LDR.ino;382
2013-03-10 12:39:54;measure_LDR.ino;374
2013-03-10 12:39:59;measure_LDR.ino;370
2013-03-10 12:40:04;measure_LDR.ino;388
2013-03-10 12:40:09;measure_LDR.ino;385
2013-03-10 12:40:14;measure_LDR.ino;369
2013-03-10 12:40:19;measure_LDR.ino;381
2013-03-10 12:40:24;measure_LDR.ino;389
2013-03-10 12:40:29;measure_LDR.ino;384
2013-03-10 12:40:34;measure_LDR.ino;379
2013-03-10 12:40:39;measure_LDR.ino;368
2013-03-10 12:40:44;measure_LDR.ino;363
2013-03-10 12:40:49;measure_LDR.ino;382
2013-03-10 12:40:54;measure_LDR.ino;379
2013-03-10 12:40:59;measure_LDR.ino;363
2013-03-10 12:41:04;measure_LDR.ino;360
2013-03-10 12:41:09;measure_LDR.ino;378
2013-03-10 12:41:14;measure_LDR.ino;375
2013-03-10 12:41:19;measure_LDR.ino;359
2013-03-10 12:41:24;measure_LDR.ino;362
2013-03-10 12:41:29;measure_LDR.ino;374
2013-03-10 12:41:34;measure_LDR.ino;378
2013-03-10 12:41:39;measure_LDR.ino;375
2013-03-10 12:41:44;measure_LDR.ino;368
2013-03-10 12:41:49;measure_LDR.ino;361
2013-03-10 12:41:54;measure_LDR.ino;360
2013-03-10 12:41:59;measure_LDR.ino;375
2013-03-10 12:42:04;measure_LDR.ino;376
2013-03-10 12:42:09;measure_LDR.ino;359
2013-03-10 12:42:14;measure_LDR.ino;373
2013-03-10 12:42:19;measure_LDR.ino;381
2013-03-10 12:42:24;measure_LDR.ino;357
2013-03-10 12:42:29;measure_LDR.ino;358
2013-03-10 12:42:34;measure_LDR.ino;376
2013-03-10 12:42:39;measure_LDR.ino;377
2013-03-10 12:42:44;measure_LDR.ino;361
2013-03-10 12:42:49;measure_LDR.ino;381
2013-03-10 12:42:54;measure_LDR.ino;355
2013-03-10 12:42:59;measure_LDR.ino;359
2013-03-10 12:43:04;measure_LDR.ino;367
2013-03-10 12:43:09;measure_LDR.ino;358
2013-03-10 12:43:14;measure_LDR.ino;366
2013-03-10 12:43:19;measure_LDR.ino;357
2013-03-10 12:43:24;measure_LDR.ino;369
2013-03-10 12:43:29;measure_LDR.ino;354
2013-03-10 12:43:34;measure_LDR.ino;372
2013-03-10 12:43:39;measure_LDR.ino;352
2013-03-10 12:43:44;measure_LDR.ino;374
2013-03-10 12:43:49;measure_LDR.ino;355
2013-03-10 12:43:54;measure_LDR.ino;370
2013-03-10 12:43:59;measure_LDR.ino;356
2013-03-10 12:44:04;measure_LDR.ino;372
2013-03-10 12:44:09;measure_LDR.ino;354
2013-03-10 12:44:14;measure_LDR.ino;372
2013-03-10 12:44:19;measure_LDR.ino;360
2013-03-10 12:44:24;measure_LDR.ino;370
2013-03-10 12:44:29;measure_LDR.ino;368
2013-03-10 12:44:34;measure_LDR.ino;364
2013-03-10 12:44:39;measure_LDR.ino;378
2013-03-10 12:44:44;measure_LDR.ino;360
2013-03-10 12:44:49;measure_LDR.ino;378
2013-03-10 12:44:54;measure_LDR.ino;377
2013-03-10 12:44:59;measure_LDR.ino;369
2013-03-10 12:45:04;measure_LDR.ino;387
2013-03-10 12:45:09;measure_LDR.ino;367
2013-03-10 12:45:14;measure_LDR.ino;390
2013-03-10 12:45:19;measure_LDR.ino;372
2013-03-10 12:45:24;measure_LDR.ino;380
2013-03-10 12:45:29;measure_LDR.ino;389
2013-03-10 12:45:34;measure_LDR.ino;371
2013-03-10 12:45:39;measure_LDR.ino;383
2013-03-10 12:45:44;measure_LDR.ino;388
2013-03-10 12:45:49;measure_LDR.ino;374
2013-03-10 12:45:54;measure_LDR.ino;391
2013-03-10 12:45:59;measure_LDR.ino;375
2013-03-10 12:46:04;measure_LDR.ino;391
2013-03-10 12:46:09;measure_LDR.ino;383
2013-03-10 12:46:14;measure_LDR.ino;376
2013-03-10 12:46:19;measure_LDR.ino;394
2013-03-10 12:46:24;measure_LDR.ino;387
2013-03-10 12:46:29;measure_LDR.ino;380
2013-03-10 12:46:34;measure_LDR.ino;399
2013-03-10 12:46:39;measure_LDR.ino;382
2013-03-10 12:46:44;measure_LDR.ino;393
2013-03-10 12:46:49;measure_LDR.ino;382
2013-03-10 12:46:54;measure_LDR.ino;401
2013-03-10 12:46:59;measure_LDR.ino;383
2013-03-10 12:47:04;measure_LDR.ino;401
2013-03-10 12:47:09;measure_LDR.ino;390
2013-03-10 12:47:14;measure_LDR.ino;391
2013-03-10 12:47:19;measure_LDR.ino;401
2013-03-10 12:47:24;measure_LDR.ino;384
2013-03-10 12:47:29;measure_LDR.ino;402
2013-03-10 12:47:34;measure_LDR.ino;385
2013-03-10 12:47:39;measure_LDR.ino;398
2013-03-10 12:47:44;measure_LDR.ino;397
2013-03-10 12:47:49;measure_LDR.ino;383
2013-03-10 12:47:54;measure_LDR.ino;405
2013-03-10 12:47:59;measure_LDR.ino;390
2013-03-10 12:48:04;measure_LDR.ino;394
2013-03-10 12:48:09;measure_LDR.ino;399
2013-03-10 12:48:14;measure_LDR.ino;384
2013-03-10 12:48:19;measure_LDR.ino;403
2013-03-10 12:48:24;measure_LDR.ino;385
2013-03-10 12:48:29;measure_LDR.ino;402
2013-03-10 12:48:34;measure_LDR.ino;401
2013-03-10 12:48:39;measure_LDR.ino;387
2013-03-10 12:48:44;measure_LDR.ino;407
2013-03-10 12:48:49;measure_LDR.ino;388
2013-03-10 12:48:54;measure_LDR.ino;403
2013-03-10 12:48:59;measure_LDR.ino;389
2013-03-10 12:49:04;measure_LDR.ino;406
2013-03-10 12:49:09;measure_LDR.ino;386
2013-03-10 12:49:14;measure_LDR.ino;405
2013-03-10 12:49:19;measure_LDR.ino;385
2013-03-10 12:49:24;measure_LDR.ino;403
2013-03-10 12:49:29;measure_LDR.ino;389
2013-03-10 12:49:34;measure_LDR.ino;387
2013-03-10 12:49:39;measure_LDR.ino;400
2013-03-10 12:49:44;measure_LDR.ino;402
2013-03-10 12:49:49;measure_LDR.ino;389
2013-03-10 12:49:54;measure_LDR.ino;373
2013-03-10 12:49:59;measure_LDR.ino;388
2013-03-10 12:50:04;measure_LDR.ino;390
2013-03-10 12:50:09;measure_LDR.ino;373
2013-03-10 12:50:14;measure_LDR.ino;390
2013-03-10 12:50:19;measure_LDR.ino;382
2013-03-10 12:50:24;measure_LDR.ino;378
2013-03-10 12:50:29;measure_LDR.ino;390
2013-03-10 12:50:34;measure_LDR.ino;372
2013-03-10 12:50:39;measure_LDR.ino;395
2013-03-10 12:50:44;measure_LDR.ino;377
2013-03-10 12:50:49;measure_LDR.ino;389
2013-03-10 12:50:54;measure_LDR.ino;384
2013-03-10 12:50:59;measure_LDR.ino;379
2013-03-10 12:51:04;measure_LDR.ino;394
2013-03-10 12:51:09;measure_LDR.ino;375
2013-03-10 12:51:14;measure_LDR.ino;396
2013-03-10 12:51:19;measure_LDR.ino;376
2013-03-10 12:51:24;measure_LDR.ino;400
2013-03-10 12:51:29;measure_LDR.ino;383
2013-03-10 12:51:34;measure_LDR.ino;390
2013-03-10 12:51:39;measure_LDR.ino;399
2013-03-10 12:51:44;measure_LDR.ino;384
2013-03-10 12:51:49;measure_LDR.ino;402
2013-03-10 12:51:54;measure_LDR.ino;395
2013-03-10 12:51:59;measure_LDR.ino;388
2013-03-10 12:52:04;measure_LDR.ino;405
2013-03-10 12:52:09;measure_LDR.ino;385
2013-03-10 12:52:14;measure_LDR.ino;406
2013-03-10 12:52:19;measure_LDR.ino;386
2013-03-10 12:52:24;measure_LDR.ino;406
2013-03-10 12:52:29;measure_LDR.ino;388
2013-03-10 12:52:34;measure_LDR.ino;408
2013-03-10 12:52:39;measure_LDR.ino;393
2013-03-10 12:52:44;measure_LDR.ino;401
2013-03-10 12:52:49;measure_LDR.ino;392
2013-03-10 12:52:54;measure_LDR.ino;389
2013-03-10 12:52:59;measure_LDR.ino;406
2013-03-10 12:53:04;measure_LDR.ino;398
2013-03-10 12:53:09;measure_LDR.ino;391
2013-03-10 12:53:14;measure_LDR.ino;395
2013-03-10 12:53:19;measure_LDR.ino;387
2013-03-10 12:53:24;measure_LDR.ino;398
2013-03-10 12:53:29;measure_LDR.ino;387
2013-03-10 12:53:34;measure_LDR.ino;386
2013-03-10 12:53:39;measure_LDR.ino;399
2013-03-10 12:53:44;measure_LDR.ino;382
2013-03-10 12:53:49;measure_LDR.ino;401
2013-03-10 12:53:54;measure_LDR.ino;380
2013-03-10 12:53:59;measure_LDR.ino;401
2013-03-10 12:54:04;measure_LDR.ino;382
2013-03-10 12:54:09;measure_LDR.ino;403
2013-03-10 12:54:14;measure_LDR.ino;383
2013-03-10 12:54:19;measure_LDR.ino;408
2013-03-10 12:54:24;measure_LDR.ino;390
2013-03-10 12:54:29;measure_LDR.ino;396
2013-03-10 12:54:34;measure_LDR.ino;408
2013-03-10 12:54:39;measure_LDR.ino;393
2013-03-10 12:54:44;measure_LDR.ino;399
2013-03-10 12:54:49;measure_LDR.ino;409
2013-03-10 12:54:54;measure_LDR.ino;391
2013-03-10 12:54:59;measure_LDR.ino;407
2013-03-10 12:55:04;measure_LDR.ino;409
2013-03-10 12:55:09;measure_LDR.ino;391
2013-03-10 12:55:14;measure_LDR.ino;402
2013-03-10 12:55:19;measure_LDR.ino;406
2013-03-10 12:55:24;measure_LDR.ino;391
2013-03-10 12:55:29;measure_LDR.ino;411
2013-03-10 12:55:34;measure_LDR.ino;399
2013-03-10 12:55:39;measure_LDR.ino;397
2013-03-10 12:55:44;measure_LDR.ino;411
2013-03-10 12:55:49;measure_LDR.ino;391
2013-03-10 12:55:54;measure_LDR.ino;406
2013-03-10 12:55:59;measure_LDR.ino;403
2013-03-10 12:56:04;measure_LDR.ino;395
2013-03-10 12:56:09;measure_LDR.ino;411
2013-03-10 12:56:14;measure_LDR.ino;393
2013-03-10 12:56:19;measure_LDR.ino;397
2013-03-10 12:56:24;measure_LDR.ino;408
2013-03-10 12:56:29;measure_LDR.ino;411
2013-03-10 12:56:34;measure_LDR.ino;397
2013-03-10 12:56:39;measure_LDR.ino;399
2013-03-10 12:56:44;measure_LDR.ino;415
2013-03-10 12:56:49;measure_LDR.ino;399
2013-03-10 12:56:54;measure_LDR.ino;397
2013-03-10 12:56:59;measure_LDR.ino;414
2013-03-10 12:57:04;measure_LDR.ino;409
2013-03-10 12:57:09;measure_LDR.ino;393
2013-03-10 12:57:14;measure_LDR.ino;402
2013-03-10 12:57:19;measure_LDR.ino;407
2013-03-10 12:57:24;measure_LDR.ino;386
2013-03-10 12:57:29;measure_LDR.ino;402
2013-03-10 12:57:34;measure_LDR.ino;408
2013-03-10 12:57:39;measure_LDR.ino;394
2013-03-10 12:57:44;measure_LDR.ino;412
2013-03-10 12:57:49;measure_LDR.ino;401
2013-03-10 12:57:54;measure_LDR.ino;404
2013-03-10 12:57:59;measure_LDR.ino;394
2013-03-10 12:58:04;measure_LDR.ino;400
2013-03-10 12:58:09;measure_LDR.ino;392
2013-03-10 12:58:14;measure_LDR.ino;414
2013-03-10 12:58:19;measure_LDR.ino;401
2013-03-10 12:58:24;measure_LDR.ino;413
2013-03-10 12:58:29;measure_LDR.ino;397
2013-03-10 12:58:34;measure_LDR.ino;414
2013-03-10 12:58:39;measure_LDR.ino;398
2013-03-10 12:58:44;measure_LDR.ino;415
2013-03-10 12:58:49;measure_LDR.ino;392
2013-03-10 12:58:54;measure_LDR.ino;411
2013-03-10 12:58:59;measure_LDR.ino;394
2013-03-10 12:59:04;measure_LDR.ino;404
2013-03-10 12:59:09;measure_LDR.ino;384
2013-03-10 12:59:14;measure_LDR.ino;404
2013-03-10 12:59:19;measure_LDR.ino;392
2013-03-10 12:59:24;measure_LDR.ino;395
2013-03-10 12:59:29;measure_LDR.ino;408
2013-03-10 12:59:34;measure_LDR.ino;389
2013-03-10 12:59:39;measure_LDR.ino;415
2013-03-10 12:59:44;measure_LDR.ino;400
2013-03-10 12:59:49;measure_LDR.ino;388
2013-03-10 12:59:54;measure_LDR.ino;396
2013-03-10 12:59:59;measure_LDR.ino;406
2013-03-10 13:00:04;measure_LDR.ino;386
2013-03-10 13:00:09;measure_LDR.ino;402
2013-03-10 13:00:14;measure_LDR.ino;390
2013-03-10 13:00:19;measure_LDR.ino;398
2013-03-10 13:00:24;measure_LDR.ino;391
2013-03-10 13:00:29;measure_LDR.ino;392
2013-03-10 13:00:34;measure_LDR.ino;396
2013-03-10 13:00:39;measure_LDR.ino;320
2013-03-10 13:00:44;measure_LDR.ino;383
2013-03-10 13:00:49;measure_LDR.ino;400
2013-03-10 13:00:54;measure_LDR.ino;397
2013-03-10 13:00:59;measure_LDR.ino;388
2013-03-10 13:01:04;measure_LDR.ino;404
2013-03-10 13:01:09;measure_LDR.ino;387
2013-03-10 13:01:14;measure_LDR.ino;410
2013-03-10 13:01:19;measure_LDR.ino;386
2013-03-10 13:01:24;measure_LDR.ino;402
2013-03-10 13:01:29;measure_LDR.ino;400
2013-03-10 13:01:34;measure_LDR.ino;389
2013-03-10 13:01:39;measure_LDR.ino;405
2013-03-10 13:01:44;measure_LDR.ino;395
2013-03-10 13:01:49;measure_LDR.ino;401
2013-03-10 13:01:54;measure_LDR.ino;404
2013-03-10 13:01:59;measure_LDR.ino;397
2013-03-10 13:02:04;measure_LDR.ino;409
2013-03-10 13:02:09;measure_LDR.ino;391
2013-03-10 13:02:14;measure_LDR.ino;413
2013-03-10 13:02:19;measure_LDR.ino;389
2013-03-10 13:02:24;measure_LDR.ino;391
2013-03-10 13:02:29;measure_LDR.ino;410
2013-03-10 13:02:34;measure_LDR.ino;397
2013-03-10 13:02:39;measure_LDR.ino;385
2013-03-10 13:02:44;measure_LDR.ino;393
2013-03-10 13:02:49;measure_LDR.ino;407
2013-03-10 13:02:54;measure_LDR.ino;392
2013-03-10 13:02:59;measure_LDR.ino;396
2013-03-10 13:03:04;measure_LDR.ino;410
2013-03-10 13:03:09;measure_LDR.ino;393
2013-03-10 13:03:14;measure_LDR.ino;410
2013-03-10 13:03:19;measure_LDR.ino;417
2013-03-10 13:03:24;measure_LDR.ino;404
2013-03-10 13:03:29;measure_LDR.ino;403
2013-03-10 13:03:34;measure_LDR.ino;417
2013-03-10 13:03:39;measure_LDR.ino;420
2013-03-10 13:03:44;measure_LDR.ino;408
2013-03-10 13:03:49;measure_LDR.ino;405
2013-03-10 13:03:54;measure_LDR.ino;421
2013-03-10 13:03:59;measure_LDR.ino;414
2013-03-10 13:04:04;measure_LDR.ino;403
2013-03-10 13:04:09;measure_LDR.ino;419
2013-03-10 13:04:14;measure_LDR.ino;414
2013-03-10 13:04:19;measure_LDR.ino;401
2013-03-10 13:04:24;measure_LDR.ino;412
2013-03-10 13:04:29;measure_LDR.ino;422
2013-03-10 13:04:34;measure_LDR.ino;405
2013-03-10 13:04:39;measure_LDR.ino;406
2013-03-10 13:04:44;measure_LDR.ino;417
2013-03-10 13:04:49;measure_LDR.ino;401
2013-03-10 13:04:54;measure_LDR.ino;402
2013-03-10 13:04:59;measure_LDR.ino;414
2013-03-10 13:05:04;measure_LDR.ino;398
2013-03-10 13:05:09;measure_LDR.ino;426
2013-03-10 13:05:14;measure_LDR.ino;410
2013-03-10 13:05:19;measure_LDR.ino;415
2013-03-10 13:05:24;measure_LDR.ino;406
2013-03-10 13:05:29;measure_LDR.ino;423
2013-03-10 13:05:34;measure_LDR.ino;402
2013-03-10 13:05:39;measure_LDR.ino;422
2013-03-10 13:05:44;measure_LDR.ino;402
2013-03-10 13:05:49;measure_LDR.ino;419
2013-03-10 13:05:54;measure_LDR.ino;405
2013-03-10 13:05:59;measure_LDR.ino;411
2013-03-10 13:06:04;measure_LDR.ino;410
2013-03-10 13:06:09;measure_LDR.ino;401
2013-03-10 13:06:14;measure_LDR.ino;418
2013-03-10 13:06:19;measure_LDR.ino;400
